\babel@toc {english}{}
\addvspace {10\p@ }
\contentsline {figure}{\numberline {1}{\ignorespaces Ontology}}{xvii}{figure.0.1}%
\addvspace {10\p@ }
\addvspace {10\p@ }
\addvspace {10\p@ }
\addvspace {10\p@ }
\contentsline {figure}{\numberline {2}{\ignorespaces \MakeUppercase {Meme}nomics (Trans4M \cite {trans4m_integral_nodate})}}{lviii}{figure.0.2}%
\addvspace {10\p@ }
\addvspace {10\p@ }
\contentsline {figure}{\numberline {3}{\ignorespaces Integral Worlds Approach}}{lxxii}{figure.0.3}%
\contentsline {figure}{\numberline {4}{\ignorespaces Integral Development: Map 2}}{lxxiv}{figure.0.4}%
\contentsline {figure}{\numberline {5}{\ignorespaces Integral Development: Summary}}{lxxiv}{figure.0.5}%
\addvspace {10\p@ }
\contentsline {figure}{\numberline {6}{\ignorespaces Culture, Community, Impact, Innovation (Trans4M \cite {trans4m_integral_nodate})}}{lxxvii}{figure.0.6}%
\contentsline {figure}{\numberline {7}{\ignorespaces I\textsuperscript {3} Core}}{lxxviii}{figure.0.7}%
\addvspace {10\p@ }
\contentsline {figure}{\numberline {1.1}{\ignorespaces Doing, Knowing, Becoming, Being}}{8}{figure.1.1}%
\contentsline {figure}{\numberline {1.2}{\ignorespaces The hero's journey}}{11}{figure.1.2}%
\addvspace {10\p@ }
\addvspace {10\p@ }
\contentsline {figure}{\numberline {3.1}{\ignorespaces The 4 R's \& F's of Money}}{40}{figure.3.1}%
\contentsline {figure}{\numberline {3.2}{\ignorespaces The integral Peara and M\textsuperscript {4} of money}}{43}{figure.3.2}%
\addvspace {10\p@ }
\contentsline {figure}{\numberline {4.1}{\ignorespaces Human evolution, Joe Magee}}{51}{figure.4.1}%
\addvspace {10\p@ }
\contentsline {figure}{\numberline {5.1}{\ignorespaces Connectivity towards wholeness}}{73}{figure.5.1}%
\contentsline {figure}{\numberline {5.2}{\ignorespaces Integral maps and time lines}}{74}{figure.5.2}%
\contentsline {figure}{\numberline {5.3}{\ignorespaces Multiple relationships}}{80}{figure.5.3}%
\contentsline {figure}{\numberline {5.4}{\ignorespaces Cartesian Coordinates}}{86}{figure.5.4}%
\contentsline {figure}{\numberline {5.5}{\ignorespaces Personality type}}{88}{figure.5.5}%
\contentsline {figure}{\numberline {5.6}{\ignorespaces How humans filter reality}}{91}{figure.5.6}%
\addvspace {10\p@ }
\contentsline {figure}{\numberline {6.1}{\ignorespaces Psychologist Abraham Maslow’s hierarchy of needs}}{98}{figure.6.1}%
\addvspace {10\p@ }
\contentsline {figure}{\numberline {7.1}{\ignorespaces 4R's of Relationship}}{109}{figure.7.1}%
\contentsline {figure}{\numberline {7.2}{\ignorespaces Sinek’s Golden Circle}}{114}{figure.7.2}%
\addvspace {10\p@ }
\addvspace {10\p@ }
\contentsline {figure}{\numberline {9.1}{\ignorespaces The Neurological Levels}}{122}{figure.9.1}%
\addvspace {10\p@ }
\contentsline {figure}{\numberline {10.1}{\ignorespaces Propositions}}{137}{figure.10.1}%
\contentsline {figure}{\numberline {10.2}{\ignorespaces Possibilities of knowing}}{138}{figure.10.2}%
\contentsline {figure}{\numberline {10.3}{\ignorespaces Action Learning Cycle}}{140}{figure.10.3}%
\addvspace {10\p@ }
\contentsline {figure}{\numberline {11.1}{\ignorespaces Map of the organisational psyche}}{153}{figure.11.1}%
\contentsline {figure}{\numberline {11.2}{\ignorespaces Iterative Model}}{158}{figure.11.2}%
\addvspace {10\p@ }
\addvspace {10\p@ }
\contentsline {figure}{\numberline {13.1}{\ignorespaces Care}}{168}{figure.13.1}%
\addvspace {10\p@ }
\addvspace {10\p@ }
\contentsline {figure}{\numberline {15.1}{\ignorespaces FairShares}}{198}{figure.15.1}%
\addvspace {10\p@ }
\contentsline {figure}{\numberline {16.1}{\ignorespaces Virtuous circles }}{207}{figure.16.1}%
\addvspace {10\p@ }
\contentsline {figure}{\numberline {17.1}{\ignorespaces Participant Medicine Wheel. Adapted from Vickers (1992-1993).}}{212}{figure.17.1}%
\contentsline {figure}{\numberline {17.2}{\ignorespaces Mind, Body, Beliefs, Finances}}{214}{figure.17.2}%
\contentsline {figure}{\numberline {17.3}{\ignorespaces Trans4M}}{220}{figure.17.3}%
\contentsline {figure}{\numberline {17.4}{\ignorespaces The value spheres of humanity}}{221}{figure.17.4}%
\contentsline {figure}{\numberline {17.5}{\ignorespaces \MakeUppercase {care} Process aligned with the 4C’s}}{227}{figure.17.5}%
\contentsline {figure}{\numberline {17.6}{\ignorespaces cheat-sheet}}{230}{figure.17.6}%
\contentsline {figure}{\numberline {17.7}{\ignorespaces Levels/Areas of Organisational Interventions}}{231}{figure.17.7}%
\contentsline {figure}{\numberline {17.8}{\ignorespaces I\textsuperscript {3} and the M4}}{234}{figure.17.8}%
\contentsline {figure}{\numberline {17.9}{\ignorespaces The Impact Management Project}}{237}{figure.17.9}%
\contentsline {figure}{\numberline {17.10}{\ignorespaces Kolb's Learning cycle}}{238}{figure.17.10}%
\contentsline {figure}{\numberline {17.11}{\ignorespaces Expansion of self}}{239}{figure.17.11}%
\contentsline {figure}{\numberline {17.12}{\ignorespaces Becoming an Integral Impact Agent of Transformation}}{241}{figure.17.12}%
\contentsline {figure}{\numberline {17.13}{\ignorespaces Washindo College}}{244}{figure.17.13}%
\contentsline {figure}{\numberline {17.14}{\ignorespaces Ikagi}}{244}{figure.17.14}%
\addvspace {10\p@ }
\contentsline {figure}{\numberline {18.1}{\ignorespaces The Integral Enterprise – An Overview}}{254}{figure.18.1}%
\contentsline {figure}{\numberline {18.2}{\ignorespaces Activating Transcultural Forces}}{255}{figure.18.2}%
\contentsline {figure}{\numberline {18.3}{\ignorespaces Examples of Transcultural Forces}}{257}{figure.18.3}%
\contentsline {figure}{\numberline {18.4}{\ignorespaces Transdisciplinary Fields: Overview}}{260}{figure.18.4}%
\contentsline {figure}{\numberline {18.5}{\ignorespaces Chronological stages of organisational decline}}{265}{figure.18.5}%
\contentsline {figure}{\numberline {18.6}{\ignorespaces Cultural complimentary dynamic forces}}{268}{figure.18.6}%
\contentsline {figure}{\numberline {18.7}{\ignorespaces Stages of grieving, By Bertrand Grondin}}{269}{figure.18.7}%
\contentsline {figure}{\numberline {18.8}{\ignorespaces Collins 5 Levels of Leadership}}{270}{figure.18.8}%
\contentsline {figure}{\numberline {18.9}{\ignorespaces Organisational life cycles}}{271}{figure.18.9}%
\contentsline {figure}{\numberline {18.10}{\ignorespaces The \MakeUppercase {paei} model}}{275}{figure.18.10}%
\contentsline {figure}{\numberline {18.11}{\ignorespaces By Neil LaChapelle, adapted from the Google Plus stream of Dorothy Shapland}}{275}{figure.18.11}%
\contentsline {figure}{\numberline {18.12}{\ignorespaces Integrator Producer}}{278}{figure.18.12}%
\contentsline {figure}{\numberline {18.13}{\ignorespaces Business Life Cycle}}{281}{figure.18.13}%
\contentsline {figure}{\numberline {18.14}{\ignorespaces Good to Great framework}}{296}{figure.18.14}%
\contentsline {figure}{\numberline {18.15}{\ignorespaces The Hedgehog Concept}}{298}{figure.18.15}%
\addvspace {10\p@ }
\addvspace {10\p@ }
\contentsline {figure}{\numberline {20.1}{\ignorespaces Impact Investment Spectrum}}{323}{figure.20.1}%
\contentsline {figure}{\numberline {20.2}{\ignorespaces Capital Intentions}}{325}{figure.20.2}%
\addvspace {10\p@ }
\contentsline {figure}{\numberline {21.1}{\ignorespaces Spectrums and prism of capital (Adapted and modified from BridgesVentures ‘Spectrum of Capital’)}}{330}{figure.21.1}%
\contentsline {figure}{\numberline {21.2}{\ignorespaces I\textsuperscript {3}}}{332}{figure.21.2}%
\contentsline {figure}{\numberline {21.3}{\ignorespaces Alignment Chain}}{336}{figure.21.3}%
\contentsline {figure}{\numberline {21.4}{\ignorespaces Conventional Culture Drivers}}{337}{figure.21.4}%
\contentsline {figure}{\numberline {21.5}{\ignorespaces Culture Areas}}{337}{figure.21.5}%
\contentsline {figure}{\numberline {21.6}{\ignorespaces A generic investments process}}{339}{figure.21.6}%
\contentsline {figure}{\numberline {21.7}{\ignorespaces Generic road map}}{339}{figure.21.7}%
\contentsline {figure}{\numberline {21.8}{\ignorespaces I\textsuperscript {3} \& \MakeUppercase {sdg}s}}{341}{figure.21.8}%
\contentsline {figure}{\numberline {21.9}{\ignorespaces Porter’s 5 Forces}}{347}{figure.21.9}%
\contentsline {figure}{\numberline {21.10}{\ignorespaces Kaplan and Norton}}{349}{figure.21.10}%
\contentsline {figure}{\numberline {21.11}{\ignorespaces Process between reporting inputs and outputs}}{351}{figure.21.11}%
\contentsline {figure}{\numberline {21.12}{\ignorespaces Clan, Hierarchy, Market}}{367}{figure.21.12}%
\contentsline {figure}{\numberline {21.13}{\ignorespaces The Hypertext Organisation}}{383}{figure.21.13}%
\contentsline {figure}{\numberline {21.14}{\ignorespaces Knowledge Creation}}{384}{figure.21.14}%
\addvspace {10\p@ }
\contentsline {figure}{\numberline {22.1}{\ignorespaces Integral Economics}}{392}{figure.22.1}%
\contentsline {figure}{\numberline {22.2}{\ignorespaces Linkages between I\textsuperscript {3} and the SDG's}}{393}{figure.22.2}%
\contentsline {figure}{\numberline {22.3}{\ignorespaces Integral Economics}}{394}{figure.22.3}%
\contentsline {figure}{\numberline {22.4}{\ignorespaces Integral Economics Map}}{395}{figure.22.4}%
\contentsline {figure}{\numberline {22.5}{\ignorespaces The four paths}}{395}{figure.22.5}%
\contentsline {figure}{\numberline {22.6}{\ignorespaces Integral Development}}{397}{figure.22.6}%
\contentsline {figure}{\numberline {22.7}{\ignorespaces Fundamentals Transformational Management}}{412}{figure.22.7}%
\contentsline {figure}{\numberline {22.8}{\ignorespaces Functions of Living Systems}}{415}{figure.22.8}%
\addvspace {10\p@ }
\contentsline {figure}{\numberline {23.1}{\ignorespaces The Double Helix}}{440}{figure.23.1}%
\contentsline {figure}{\numberline {23.2}{\ignorespaces Flower on lily pad}}{450}{figure.23.2}%
\contentsline {figure}{\numberline {23.3}{\ignorespaces Lily pad Bronze Sculpture}}{451}{figure.23.3}%
\contentsline {figure}{\numberline {23.4}{\ignorespaces Value Memes}}{466}{figure.23.4}%
\addvspace {10\p@ }
\contentsline {figure}{\numberline {24.1}{\ignorespaces Consensus Decision Making. (Bressen, T. 2006)}}{489}{figure.24.1}%
\contentsline {figure}{\numberline {24.2}{\ignorespaces Corruption perceptions Index}}{500}{figure.24.2}%
\addvspace {10\p@ }
\contentsline {figure}{\numberline {25.1}{\ignorespaces The big opportunity}}{506}{figure.25.1}%
\contentsline {figure}{\numberline {25.2}{\ignorespaces Seven Capacities}}{514}{figure.25.2}%
\contentsline {figure}{\numberline {25.3}{\ignorespaces Five Stages}}{515}{figure.25.3}%
\contentsline {figure}{\numberline {25.4}{\ignorespaces Space Value with no Time}}{527}{figure.25.4}%
\contentsline {figure}{\numberline {25.5}{\ignorespaces Net Space Time Value}}{528}{figure.25.5}%
\addvspace {10\p@ }
\contentsline {figure}{\numberline {26.1}{\ignorespaces Integral Impact Investment Model}}{532}{figure.26.1}%
\contentsline {figure}{\numberline {26.2}{\ignorespaces South}}{533}{figure.26.2}%
\contentsline {figure}{\numberline {26.3}{\ignorespaces East}}{534}{figure.26.3}%
\contentsline {figure}{\numberline {26.4}{\ignorespaces North}}{535}{figure.26.4}%
\contentsline {figure}{\numberline {26.5}{\ignorespaces West}}{536}{figure.26.5}%
\contentsline {figure}{\numberline {26.6}{\ignorespaces Weighted Balance}}{537}{figure.26.6}%
\contentsline {figure}{\numberline {26.7}{\ignorespaces South}}{539}{figure.26.7}%
\addvspace {10\p@ }
\contentsline {figure}{\numberline {27.1}{\ignorespaces Constant Returns vs. CPI}}{543}{figure.27.1}%
\contentsline {figure}{\numberline {27.2}{\ignorespaces High Yield vs. Risk Free Rate}}{544}{figure.27.2}%
\contentsline {figure}{\numberline {27.3}{\ignorespaces Cumulative Total Returns}}{544}{figure.27.3}%
\contentsline {figure}{\numberline {27.4}{\ignorespaces Time Value}}{548}{figure.27.4}%
\addvspace {10\p@ }
\contentsline {figure}{\numberline {28.1}{\ignorespaces Source Maximilian Abouleish}}{553}{figure.28.1}%
\contentsline {figure}{\numberline {28.2}{\ignorespaces Source Maximilian Abouleish}}{554}{figure.28.2}%
\contentsline {figure}{\numberline {28.3}{\ignorespaces SEKEM as a Fourfold Commonwealth}}{555}{figure.28.3}%
\contentsline {figure}{\numberline {28.4}{\ignorespaces Source Maximilian Abouleish}}{556}{figure.28.4}%
\contentsline {figure}{\numberline {28.5}{\ignorespaces Source Maximilian Abouleish}}{558}{figure.28.5}%
\contentsline {figure}{\numberline {28.6}{\ignorespaces Source Maximilian Abouleish}}{559}{figure.28.6}%
\contentsline {figure}{\numberline {28.7}{\ignorespaces The Integral Project Management impact matrix.}}{559}{figure.28.7}%
\contentsline {figure}{\numberline {28.8}{\ignorespaces Source Maximilian Abouleish}}{560}{figure.28.8}%
\contentsline {figure}{\numberline {28.9}{\ignorespaces \MakeUppercase {sekem}’s approach to Integral Human, Organisational and Community Development}}{561}{figure.28.9}%
\addvspace {10\p@ }
\contentsline {figure}{\numberline {29.1}{\ignorespaces Power vs Force Scale of Truth}}{571}{figure.29.1}%
\contentsline {figure}{\numberline {29.2}{\ignorespaces Power vs Force Map of Consciousness }}{573}{figure.29.2}%
\addvspace {10\p@ }
\addvspace {10\p@ }
\contentsline {figure}{\numberline {A.1}{\ignorespaces }}{598}{figure.A.1}%
\contentsline {figure}{\numberline {A.2}{\ignorespaces }}{599}{figure.A.2}%
\addvspace {10\p@ }
\addvspace {10\p@ }
\contentsfinish 
