# Fdb version 3
["pdflatex"] 1584654093 "dimensions_change.tex" "dimensions_change.pdf" "dimensions_change" 1584654093
  "/usr/local/texlive/2019/texmf-dist/web2c/texmf.cnf" 1577314212 39451 6c50cbbc48279cc2d67f72e32ca48ad5 ""
  "/usr/local/texlive/2019/texmf-var/web2c/pdftex/pdflatex.fmt" 1579964374 4227128 d6ebeb9ac0099af792c9c9a112878c3f ""
  "/usr/local/texlive/2019/texmf.cnf" 1567356861 455 5b996dcaa0eb4ef14a83b026bc0a008c ""
  "dimensions_change.aux" 1584654071 8 a94a2480d3289e625eea47cd1b285758 ""
  "dimensions_change.tex" 1584654071 39 7d78751e2a55bff68ffc66449c209dfd ""
  (generated)
  "dimensions_change.pdf"
  "dimensions_change.log"
